[
  {
    "regex": "https?://[-a-zA-Z0-9@:%._\\+~#=]{0,256}\\.?facebook\\.com",
    "icon": "facebook"
  },
  {
    "regex": "https?://[-a-zA-Z0-9@:%._\\+~#=]{0,256}\\.?github\\.com",
    "icon": "github"
  },
  {
    "regex": "https?://[-a-zA-Z0-9@:%._\\+~#=]{0,256}\\.?gitlab\\.com",
    "icon": "gitlab"
  },
  {
    "regex": "https?://[-a-zA-Z0-9@:%._\\+~#=]{0,256}\\.?bitbucket\\.org",
    "icon": "git"
  },
  {
    "regex": "https?://[-a-zA-Z0-9@:%._\\+~#=]{0,256}\\.?gitea\\.io",
    "icon": "git"
  },
  {
    "regex": "https?://[-a-zA-Z0-9@:%._\\+~#=]{0,256}\\.?instagram\\.com",
    "icon": "instagram"
  },
  {
    "regex": "https?://[-a-zA-Z0-9@:%._\\+~#=]{0,256}\\.?linkedin\\.com",
    "icon": "linkedin"
  },
  {
    "regex": "https?://[-a-zA-Z0-9@:%._\\+~#=]{0,256}\\.?soundcloud\\.com",
    "icon": "soundcloud"
  },
  {
    "regex": "https?://[-a-zA-Z0-9@:%._\\+~#=]{0,256}\\.?t\\.me",
    "icon": "telegram"
  },
  {
    "regex": "https?://[-a-zA-Z0-9@:%._\\+~#=]{0,256}\\.?telegram\\.org",
    "icon": "telegram"
  },
  {
    "regex": "https?://[-a-zA-Z0-9@:%._\\+~#=]{0,256}\\.?twitter\\.com",
    "icon": "twitter"
  },
  {
    "regex": "https?://[-a-zA-Z0-9@:%._\\+~#=]{0,256}\\.?youtube\\.com",
    "icon": "youtube"
  },
  {
    "regex": "https?://[-a-zA-Z0-9@:%._\\+~#=]{0,256}\\.?ubports\\.com",
    "icon": "yumi"
  },
  {
    "regex": "https?://[-a-zA-Z0-9@:%._\\+~#=]{0,256}\\.?ubuntu-touch\\.io",
    "icon": "yumi"
  }
]
